<svg id="bg" xmlns="http://www.w3.org/2000/svg" viewBox="0 0 32 32">
  <title>Checkmark Finished</title>
  <path d="M20.33,13.67l-5.46,5.46-3.21-3.21.79-.79,2.42,2.42,4.67-4.67Z" style="fill: #666"/>
</svg>
