01/23/2019 09:01:46 Checking for existence of Branding Active Setup stub...
01/23/2019 09:01:46 InternetExplorerBrandGUID didn't exist: Branding component not installed
01/23/2019 09:01:46 Inf Version is set to "11,00,17763,107".
01/23/2019 09:01:46 HKCU Active Setup Key not found.

01/23/2019 09:01:46     COM initialized with S_FALSE success code.

01/23/2019 09:01:46 Branding Internet Explorer...
01/23/2019 09:01:46 Command line is "/mode:isp /peruser".

01/23/2019 09:01:46 Global branding settings are:
01/23/2019 09:01:46     Context is (0x01C00008) "Internet Content Providers, running from per-user stub";
01/23/2019 09:01:46     Settings file is        "C:\Program Files (x86)\Internet Explorer\Signup\install.ins";
01/23/2019 09:01:46     Target folder path is   "C:\Program Files (x86)\Internet Explorer\Signup".
01/23/2019 09:01:46 Done.

01/23/2019 09:01:46     About to clear previous branding...
01/23/2019 09:01:46     Done.

01/23/2019 09:01:46     Processing migration of old settings...
01/23/2019 09:01:46     Done.

01/23/2019 09:01:46     Processing wininet setup...
01/23/2019 09:01:46     There are no connection settings to process!
01/23/2019 09:01:46     Done.

01/23/2019 09:01:46     Processing deletion of connection settings...
01/23/2019 09:01:46     Existing connection settings weren't specified to be deleted!
01/23/2019 09:01:46     Done.

01/23/2019 09:01:46     Processing zones HKCU settings...
01/23/2019 09:01:46     Done.

01/23/2019 09:01:46     Processing local machine policies and restrictions...
01/23/2019 09:01:46     There are no local machine *.inf files to process!
01/23/2019 09:01:46     Done.

01/23/2019 09:01:46     Processing current user policies and restrictions...
01/23/2019 09:01:46     There are no current user *.inf files to process!
01/23/2019 09:01:46     Done.

01/23/2019 09:01:46     Processing legacy policies and restrictions...
01/23/2019 09:01:46         There are no local machine *.inf files to process!
01/23/2019 09:01:46         There are no current user *.inf files to process!
01/23/2019 09:01:46     There are no legacy *.inf files to process!
01/23/2019 09:01:46     Done.

01/23/2019 09:01:46     Processing general customizations...
01/23/2019 09:01:46     Done.

01/23/2019 09:01:46     Processing Help->About customization...
01/23/2019 09:01:46     Done.

01/23/2019 09:01:46     Processing browser toolbar buttons...
01/23/2019 09:01:46     There are no toolbar buttons to process!
01/23/2019 09:01:46     Done.

01/23/2019 09:01:46     Processing root certificates...
01/23/2019 09:01:46     This feature is for ISPs only!
01/23/2019 09:01:46     Done.

01/23/2019 09:01:46     Processing default favorites and/or quick links...
01/23/2019 09:01:46     Creating separate thread for processing default favorites...

01/23/2019 09:01:46     COM initialized with S_OK success code.
01/23/2019 09:01:46         Determining favorites attributes...
01/23/2019 09:01:46             <Favorites> folder location is "C:\Users\Ketan Bhandari\Favorites".
01/23/2019 09:01:46         marked as Low Integrity,
01/23/2019 09:01:46         Title     - "Bing",
01/23/2019 09:01:46         URL       - "http://go.microsoft.com/fwlink/p/?LinkId=255142",
01/23/2019 09:01:46         Icon file - "%ProgramFiles%\Internet Explorer\Images\bing.ico",
01/23/2019 09:01:46         not marked IEAK created,
01/23/2019 09:01:46         Done.
01/23/2019 09:01:46     Done.

01/23/2019 09:01:46     Processing deletion of favorites and/or quick links...
01/23/2019 09:01:46     None of the favorites folders were specified to be deleted!
01/23/2019 09:01:46     Done.

01/23/2019 09:01:46     Processing favorites...
01/23/2019 09:01:46     There are no favorites to add!
01/23/2019 09:01:46     Done.

01/23/2019 09:01:46     Processing ordering of favorites...
01/23/2019 09:01:46     Favorites will be put into the default position!
01/23/2019 09:01:46     Done.

01/23/2019 09:01:46     Processing quick links...
01/23/2019 09:01:46     There are no quick links to add!
01/23/2019 09:01:46     Done.

01/23/2019 09:01:46     Processing ordering of quick links...
01/23/2019 09:01:46     Quick Links will be put into the default position!
01/23/2019 09:01:46     Done.

01/23/2019 09:01:46     Processing connection settings...
01/23/2019 09:01:46     There are no connection settings to process!
01/23/2019 09:01:46     Done.

01/23/2019 09:01:46     Processing TrustedPublisherLockdown restriction...
01/23/2019 09:01:46     This restriction is not set!
01/23/2019 09:01:46     Done.

01/23/2019 09:01:46     Creating feeds...
01/23/2019 09:01:46 Processing [Feeds] section...

01/23/2019 09:01:46 Processing [FavoritesBar] section for Feeds...

01/23/2019 09:01:46 Processing [FavoritesBar] section for WebSlices...

01/23/2019 09:01:46     Done.

01/23/2019 09:01:46     Creating start pages...
01/23/2019 09:01:46     There are no start pages to add!
01/23/2019 09:01:46     Done.

01/23/2019 09:01:46     Creating search providers...
01/23/2019 09:01:46     There are no search providers to add!
01/23/2019 09:01:46     Done.

01/23/2019 09:01:46     Installing Activities...
01/23/2019 09:01:46     There are no Actitivies to Install!
01/23/2019 09:01:46     Done.

01/23/2019 09:01:46     Installing Unattend Favorite bar items...
01/23/2019 09:01:46 Cannot Open Registry Key HKCU\SOFTWARE\Microsoft\Internet Explorer\AppliedUnattend [error=2]. It probably doesn't exist. Not an error.
01/23/2019 09:01:46 ProcessUnattendFavBarItems processing favbaritems from location: SOFTWARE\Microsoft\Internet Explorer\UnattendBackup\ActiveSetup\FavoriteBarItems
01/23/2019 09:01:46 No subkeys found.
01/23/2019 09:01:46     Done.

01/23/2019 09:01:46     Installing Unattend Activites...
01/23/2019 09:01:46 Cannot Open Registry Key HKCU\SOFTWARE\Microsoft\Internet Explorer\AppliedUnattend [error=2]. It probably doesn't exist. Not an error.
01/23/2019 09:01:46 ProcessUnattendActivities processing activities from location: SOFTWARE\Microsoft\Internet Explorer\UnattendBackup\ActiveSetup\Accelerators
01/23/2019 09:01:46 No subkeys found.
01/23/2019 09:01:46     Done.

01/23/2019 09:01:46     Refreshing browser settings...
01/23/2019 09:01:46     Broadcasting "Windows settings change" to all top level windows...
01/23/2019 09:01:46     Done.
01/23/2019 09:01:46 Done.
01/23/2019 09:01:46 Done.
